{
    "type": "minecraft:chest",
    "pools": [{
        "rolls": 1,
        "entries": [{
            "type": "minecraft:item",
            "name": "levelhearts:heart_container",
            "weight": 5,
            "functions": [{
                "function": "set_count",
                "count": {
                    "min": 0,
                    "max": 5
                }
            }]
        }, {
            "type": "minecraft:item",
            "name": "levelhearts:heart_piece",
            "weight": 7,
            "functions": [{
                "function": "set_count",
                "count": {
                    "min": 0,
                    "max": 5
                }
            }]
        }]
    }]
}