{
  "type": "minecraft:crafting_shaped",
  "pattern": [
    "###",
    "%$%",
    "###"
  ],
  "key": {
    "#": {
      "item": "minecraft:iron_ingot"
    },
    "$": {
      "item": "minecraft:enchanted_golden_apple"
    },
    "%": {
      "item": "minecraft:golden_apple"
    }
  },
  "result": {
    "item": "levelhearts:heart_container"
  }
}